atl, 5251
borgwarner, 31000
bwbelwood, 13000
cemex, 14000
cemexcc, 26000
cemexusa, 23000
cesmiiatlsc, 3128
cesmiisite1, 8750
cesmiiuci, 27000
cxlb, 2501
cxlfw, 6243
flexmilpitas, 4694
iadot01, 332
iessanleandro, 8426
invistartm, 114
lehighhanson, 25000
lehighhansonflt, 5447
lehighhansonstk, 17000
lehighhansonteh, 10094
lhcredding, 1511
lhlunioncity, 1366
lhnazareth, 4355
lhunionbridge, 6254
postgres, 7.455
rdsadmin, 7.647
remssantaclara, 17000
rheemwater, 20000
sbay, 74000
schaeffler, 9075
schaefflerfm1, 12000
schneiderelectric, 21000
sgucheraw, 8134
template0, 7.345
template040, 8.249
template1, 7.345
tesla, 4208
tholley, 21000
tia, 25000
titanamerica, 17000
trimac, 19000
uscsanjose, 90
vdb, 40000
wilsonart, 31000
